…
```
## # A tibble: 122 × 4
##    column                     assigned  observed  vsample                      
##    <chr>                      <chr>     <chr>     <chr>                        
##  1 sk_id_curr                 numeric   numeric   100002                       
##  2 target                     numeric   numeric   1                            
##  3 name_contract_type         character character Cash loans                   
##  4 code_gender                character character M                            
##  5 flag_own_car               character character N                            
##  6 flag_own_realty            character character Y                            
##  7 cnt_children               numeric   numeric   0                            
##  8 amt_income_total           numeric   numeric   202500                       
##  9 amt_credit                 numeric   numeric   406597.5                     
## 10 amt_annuity                numeric   numeric   24700.5                      
## 11 amt_goods_price            numeric   numeric   351000                       
## 12 name_type_suite            character character Unaccompanied                
## 13 name_income_type           character character Working                      
## 14 name_education_type        character character Secondary / secondary special
## 15 name_family_status         character character Single / not married         
## 16 name_housing_type          character character House / apartment            
## 17 region_population_relative numeric   numeric   0.018801                     
## 18 days_birth                 numeric   numeric   -9461                        
## 19 days_employed              numeric   numeric   -637                         
## 20 days_registration          numeric   numeric   -3648                        
## 21 days_id_publish            numeric   numeric   -2120                        
## 22 own_car_age                numeric   numeric   <NA>                         
## 23 flag_mobil                 numeric   numeric   1                            
## 24 flag_emp_phone             numeric   numeric   1                            
## # ℹ 98 more rows
```
…
```
## # A tibble: 0 × 4
## # ℹ 4 variables: column <chr>, assigned <chr>, observed <chr>, vsample <chr>
```

Since no columns where misclassed during the importing process, we can move on to subsetting the numerical columns.


```r
app_train %>%
  select(where(is.numeric))
```

```
## # A tibble: 307,511 × 106
##    sk_id_curr target cnt_children amt_income_total amt_credit amt_annuity amt_goods_price
##         <dbl>  <dbl>        <dbl>            <dbl>      <dbl>       <dbl>           <dbl>
##  1     100002      1            0          202500     406598.      24700.          351000
##  2     100003      0            0          270000    1293502.      35698.         1129500
##  3     100004      0            0           67500     135000        6750           135000
##  4     100006      0            0          135000     312682.      29686.          297000
##  5     100007      0            0          121500     513000       21866.          513000
##  6     100008      0            0           99000     490496.      27518.          454500
##  7     100009      0            1          171000    1560726       41301          1395000
##  8     100010      0            0          360000    1530000       42075          1530000
##  9     100011      0            0          112500    1019610       33826.          913500
## 10     100012      0            0          135000     405000       20250           405000
## 11     100014      0            1          112500     652500       21177           652500
## 12     100015      0            0           38419.    148365       10678.          135000
## 13     100016      0            0           67500      80865        5882.           67500
## 14     100017      0            1          225000     918468       28966.          697500
## 15     100018      0            0          189000     773680.      32778           679500
## 16     100019      0            0          157500     299772       20160           247500
## 17     100020      0            0          108000     509602.      26150.          387000
## 18     100021      0            1           81000     270000       13500           270000
## 19     100022      0            0          112500     157500        7875           157500
## 20     100023      0            1           90000     544491       17564.          454500
## 21     100024      0            0          135000     427500       21375           427500
## 22     100025      0            1          202500    1132574.      37562.          927000
## 23     100026      0            1          450000     497520       32522.          450000
## 24     100027      0            0           83250     239850       23850           225000
## # ℹ 307,487 more rows
## # ℹ 99 more variables: region_population_relative <dbl>, days_birth <dbl>, days_employed <dbl>,
## #   days_registration <dbl>, days_id_publish <dbl>, own_car_age <dbl>, flag_mobil <dbl>,
## #   flag_emp_phone <dbl>, flag_work_phone <dbl>, flag_cont_mobile <dbl>, flag_phone <dbl>,
## #   flag_email <dbl>, cnt_fam_members <dbl>, region_rating_client <dbl>,
## #   region_rating_client_w_city <dbl>, hour_appr_process_start <dbl>,
## #   reg_region_not_live_region <dbl>, reg_region_not_work_region <dbl>, …
```
…
```r
app_train %>%
  # Keep only numeric columns
  select(where(is.numeric)) %>%
  # Convert everytyhing to character
  mutate(across(everything(), as.character)) %>%
  # Only keep rows without negatives or decimals
  select(where(~ all(!grepl("\\.|-", .)))) %>%
  colnames() %>%
  tibble(column = .)
```

```
## # A tibble: 50 × 1
##    column                     
##    <chr>                      
##  1 sk_id_curr                 
##  2 target                     
##  3 cnt_children               
##  4 own_car_age                
##  5 flag_mobil                 
##  6 flag_emp_phone             
##  7 flag_work_phone            
##  8 flag_cont_mobile           
##  9 flag_phone                 
## 10 flag_email                 
## 11 cnt_fam_members            
## 12 region_rating_client       
## 13 region_rating_client_w_city
## 14 hour_appr_process_start    
## 15 reg_region_not_live_region 
## 16 reg_region_not_work_region 
## 17 live_region_not_work_region
## 18 reg_city_not_live_city     
## 19 reg_city_not_work_city     
## 20 live_city_not_work_city    
## 21 obs_30_cnt_social_circle   
## 22 def_30_cnt_social_circle   
## 23 obs_60_cnt_social_circle   
## 24 def_60_cnt_social_circle   
## # ℹ 26 more rows
```
…
```
## # A tibble: 64 × 9
##    column                          avg      med      max      min      sd      var outupper outlower
##    <chr>                         <dbl>    <dbl>    <dbl>    <dbl>   <dbl>    <dbl>    <dbl>    <dbl>
##  1 cnt_children                4.2 e-1  0        1.9 e+1  0       7.2 e-1 5.2 e- 1  2.5 e+0 -1.5 e+0
##  2 amt_income_total            1.69e+5  1.47e+5  1.17e+8  2.57e+4 2.37e+5 5.62e+10  3.38e+5 -2.25e+4
##  3 amt_credit                  5.99e+5  5.14e+5  4.05e+6  4.50e+4 4.02e+5 1.62e+11  1.62e+6 -5.38e+5
##  4 amt_annuity                 2.71e+4  2.49e+4  2.58e+5  1.62e+3 1.45e+4 2.10e+ 8  6.17e+4 -1.06e+4
##  5 amt_goods_price             5.38e+5  4.50e+5  4.05e+6  4.05e+4 3.69e+5 1.36e+11  1.34e+6 -4.23e+5
##  6 region_population_relative  2   e-2  2   e-2  7   e-2  0       1   e-2 0         6   e-2 -2   e-2
##  7 days_birth                 -1.60e+4 -1.58e+4 -7.49e+3 -2.52e+4 4.36e+3 1.90e+ 7 -1.51e+3 -3.06e+4
##  8 days_employed               6.38e+4 -1.21e+3  3.65e+5 -1.79e+4 1.41e+5 2.00e+10  3.42e+3 -6.47e+3
##  9 days_registration          -4.99e+3 -4.50e+3  0       -2.47e+4 3.52e+3 1.24e+ 7  6.19e+3 -1.57e+4
## 10 days_id_publish            -2.99e+3 -3.25e+3  0       -7.20e+3 1.51e+3 2.28e+ 6  2.15e+3 -8.17e+3
## 11 own_car_age                 1.21e+1  9   e+0  9.1 e+1  0       1.19e+1 1.43e+ 2  3   e+1 -1   e+1
## 12 cnt_fam_members             2.15e+0  2   e+0  2   e+1  1   e+0 9.1 e-1 8.3 e- 1  4.5 e+0  5   e-1
## 13 hour_appr_process_start     1.21e+1  1.2 e+1  2.3 e+1  0       3.27e+0 1.07e+ 1  2   e+1  4   e+0
## 14 ext_source_1                5   e-1  5.1 e-1  9.6 e-1  1   e-2 2.1 e-1 4   e- 2  1.19e+0 -1.8 e-1
## 15 ext_source_2                5.1 e-1  5.7 e-1  8.5 e-1  0       1.9 e-1 4   e- 2  1.07e+0 -1   e-2
## 16 ext_source_3                5.1 e-1  5.4 e-1  9   e-1  0       1.9 e-1 4   e- 2  1.12e+0 -8   e-2
## 17 apartments_avg              1.2 e-1  9   e-2  1   e+0  0       1.1 e-1 1   e- 2  2.8 e-1 -8   e-2
## 18 basementarea_avg            9   e-2  8   e-2  1   e+0  0       8   e-2 1   e- 2  2.1 e-1 -6   e-2
## 19 years_beginexpluatation_a…  9.8 e-1  9.8 e-1  1   e+0  0       6   e-2 0         1   e+0  9.6 e-1
## 20 years_build_avg             7.5 e-1  7.6 e-1  1   e+0  0       1.1 e-1 1   e- 2  1.03e+0  4.8 e-1
## 21 commonarea_avg              4   e-2  2   e-2  1   e+0  0       8   e-2 1   e- 2  1.2 e-1 -6   e-2
## 22 elevators_avg               8   e-2  0        1   e+0  0       1.3 e-1 2   e- 2  3   e-1 -1.8 e-1
## 23 entrances_avg               1.5 e-1  1.4 e-1  1   e+0  0       1   e-1 1   e- 2  4.1 e-1 -1.4 e-1
## 24 floorsmax_avg               2.3 e-1  1.7 e-1  1   e+0  0       1.4 e-1 2   e- 2  5.8 e-1 -8   e-2
## # ℹ 40 more rows
```
…
```r
app_train1 %>%
  select(code_gender, organization_type) %>%
  mutate(across(c(code_gender, organization_type), 
                ~case_when(. != "XNA" ~ .))) %>% # Fix occurs here
  sapply(., unique) %>% # Displaying the results 
  tibble(cols = names(.),
         val = .) %>%
  unnest(val) %>%
  arrange()
```

```
## # A tibble: 61 × 2
##    cols              val                   
##    <chr>             <fct>                 
##  1 code_gender       M                     
##  2 code_gender       F                     
##  3 code_gender       <NA>                  
##  4 organization_type Business Entity Type 3
##  5 organization_type School                
##  6 organization_type Government            
##  7 organization_type Religion              
##  8 organization_type Other                 
##  9 organization_type <NA>                  
## 10 organization_type Electricity           
## 11 organization_type Medicine              
## 12 organization_type Business Entity Type 2
## 13 organization_type Self-employed         
## 14 organization_type Transport: type 2     
## 15 organization_type Construction          
## 16 organization_type Housing               
## 17 organization_type Kindergarten          
## 18 organization_type Trade: type 7         
## 19 organization_type Industry: type 11     
## 20 organization_type Military              
## 21 organization_type Services              
## 22 organization_type Security Ministries   
## 23 organization_type Transport: type 4     
## 24 organization_type Industry: type 1      
## # ℹ 37 more rows
```
…
This can be solved with the following:


```r
app_train1 %>%
  mutate(days_employed = case_when(days_employed <= 0 ~ days_employed))
```

```
## # A tibble: 307,511 × 122
##    sk_id_curr target name_contract_type code_gender flag_own_car flag_own_realty cnt_children
##    <fct>      <fct>  <fct>              <fct>       <fct>        <fct>                  <dbl>
##  1 100002     1      Cash loans         M           N            Y                          0
##  2 100003     0      Cash loans         F           N            N                          0
##  3 100004     0      Revolving loans    M           Y            Y                          0
##  4 100006     0      Cash loans         F           N            Y                          0
##  5 100007     0      Cash loans         M           N            Y                          0
##  6 100008     0      Cash loans         M           N            Y                          0
##  7 100009     0      Cash loans         F           Y            Y                          1
##  8 100010     0      Cash loans         M           Y            Y                          0
##  9 100011     0      Cash loans         F           N            Y                          0
## 10 100012     0      Revolving loans    M           N            Y                          0
## 11 100014     0      Cash loans         F           N            Y                          1
## 12 100015     0      Cash loans         F           N            Y                          0
## 13 100016     0      Cash loans         F           N            Y                          0
## 14 100017     0      Cash loans         M           Y            N                          1
## 15 100018     0      Cash loans         F           N            Y                          0
## 16 100019     0      Cash loans         M           Y            Y                          0
## 17 100020     0      Cash loans         M           N            N                          0
## 18 100021     0      Revolving loans    F           N            Y                          1
## 19 100022     0      Revolving loans    F           N            Y                          0
## 20 100023     0      Cash loans         F           N            Y                          1
## 21 100024     0      Revolving loans    M           Y            Y                          0
## 22 100025     0      Cash loans         F           Y            Y                          1
## 23 100026     0      Cash loans         F           N            N                          1
## 24 100027     0      Cash loans         F           N            Y                          0
## # ℹ 307,487 more rows
## # ℹ 115 more variables: amt_income_total <dbl>, amt_credit <dbl>, amt_annuity <dbl>,
## #   amt_goods_price <dbl>, name_type_suite <fct>, name_income_type <fct>,
## #   name_education_type <fct>, name_family_status <fct>, name_housing_type <fct>,
## #   region_population_relative <dbl>, days_birth <dbl>, days_employed <dbl>,
## #   days_registration <dbl>, days_id_publish <dbl>, own_car_age <dbl>, flag_mobil <fct>,
## #   flag_emp_phone <fct>, flag_work_phone <fct>, flag_cont_mobile <fct>, flag_phone <fct>, …
```
…
